ST558: Homework 5 - Fitting Models
…
             vars   n   mean     sd median  min   max range   se
Age             1 918  53.51   9.43   54.0 28.0  77.0  49.0 0.31
RestingBP       4 918 132.40  18.51  130.0  0.0 200.0 200.0 0.61
Cholesterol     5 918 198.80 109.38  223.0  0.0 603.0 603.0 3.61
FastingBS       6 918   0.23   0.42    0.0  0.0   1.0   1.0 0.01
MaxHR           8 918 136.81  25.46  138.0 60.0 202.0 142.0 0.84
Oldpeak        10 918   0.89   1.07    0.6 -2.6   6.2   8.8 0.04
HeartDisease   12 918   0.55   0.50    1.0  0.0   1.0   1.0 0.02

#Review the rows with 0 values
heart_tb |>
  filter(Cholesterol == 0 | RestingBP == 0)

# A tibble: 172 × 12
     Age Sex   ChestPainType RestingBP Cholesterol FastingBS RestingECG MaxHR
   <dbl> <chr> <chr>             <dbl>       <dbl>     <dbl> <chr>      <dbl>
 1    65 M     ASY                 115           0         0 Normal        93
 2    32 M     TA                   95           0         1 Normal       127
 3    61 M     ASY                 105           0         1 Normal       110
 4    50 M     ASY                 145           0         1 Normal       139
 5    57 M     ASY                 110           0         1 ST           131
 6    51 M     ASY                 110           0         1 Normal        92
 7    47 M     ASY                 110           0         1 ST           149
 8    60 M     ASY                 160           0         1 Normal       149
 9    55 M     ATA                 140           0         0 ST           150
10    53 M     ASY                 125           0         1 Normal       120
# ℹ 162 more rows
# ℹ 4 more variables: ExerciseAngina <chr>, Oldpeak <dbl>, ST_Slope <chr>,
#   HeartDisease <dbl>
…
